3
2 3 6 1 5 7 4 8 9
1 5 7 4 8 9 3 2 6
4 9 8 3 2 6 5 1 7
6 1 2 7 4 5 9 3 8
8 4 3 6 9 1 7 5 2
5 7 9 8 3 2 6 4 1
9 2 4 5 7 8 1 6 3
3 8 1 9 6 4 2 7 5
7 6 5 2 1 3 8 9 4

9 2 4 1 3 8 5 7 6
1 5 8 2 7 6 4 9 3
3 7 6 9 5 4 2 1 8
4 9 5 8 1 2 3 6 7
8 3 7 6 9 5 1 2 4
6 1 2 3 4 7 9 8 5
2 6 3 4 8 9 7 5 1
7 4 9 5 6 1 8 3 2
5 8 1 7 2 3 6 4 9
